\BOOKMARK [0][-]{chapter*.1}{Tabla de contenido}{}% 1
\BOOKMARK [0][-]{chapter*.1}{Lista de Figura}{}% 2
\BOOKMARK [0][-]{chapter.1}{PROPUESTA DE TRABAJO DE GRADO}{}% 3
\BOOKMARK [1][-]{section.1.1}{DESCRIPCI\323N GENERAL DEL PROYECTO}{chapter.1}% 4
\BOOKMARK [2][-]{subsection.1.1.1}{T\355tulo del Proyecto de Grado}{section.1.1}% 5
\BOOKMARK [2][-]{subsection.1.1.2}{Direcci\363n de Ejecuci\363n}{section.1.1}% 6
\BOOKMARK [2][-]{subsection.1.1.3}{Lapso de Ejecuci\363n}{section.1.1}% 7
\BOOKMARK [2][-]{subsection.1.1.4}{Organismo o Instituci\363n Responsable del Proyecto}{section.1.1}% 8
\BOOKMARK [2][-]{subsection.1.1.5}{Informaci\363n de Contacto de los Estudiantes}{section.1.1}% 9
\BOOKMARK [2][-]{subsection.1.1.6}{L\355nea y Subl\355nea de Investigaci\363n del Proyecto}{section.1.1}% 10
\BOOKMARK [1][-]{section.1.2}{DESCRIPCI\323N SITUACIONAL}{chapter.1}% 11
\BOOKMARK [2][-]{subsection.1.2.1}{ESTADO DEL ARTE}{section.1.2}% 12
\BOOKMARK [2][-]{subsection.1.2.2}{PLANTEAMIENTO DEL PROBLEMA}{section.1.2}% 13
\BOOKMARK [2][-]{subsection.1.2.3}{IMPACTO DEL PROBLEMA}{section.1.2}% 14
\BOOKMARK [2][-]{subsection.1.2.4}{ANALISIS DE PARTICIPACI\323N}{section.1.2}% 15
\BOOKMARK [2][-]{subsection.1.2.5}{OBJETIVOS DEL PROYECTO}{section.1.2}% 16
\BOOKMARK [2][-]{subsection.1.2.6}{JUSTIFICACI\323N DEL PROYECTO}{section.1.2}% 17
\BOOKMARK [2][-]{subsection.1.2.7}{Cronograma}{section.1.2}% 18
\BOOKMARK [0][-]{chapter*.4}{ Referencias Bibliograf\355a}{}% 19
