\relax 
\providecommand\hyper@newdestlabel[2]{}
\AC@reset@newl@bel
\providecommand\HyperFirstAtBeginDocument{\AtBeginDocument}
\HyperFirstAtBeginDocument{\ifx\hyper@anchor\@undefined
\global\let\oldcontentsline\contentsline
\gdef\contentsline#1#2#3#4{\oldcontentsline{#1}{#2}{#3}}
\global\let\oldnewlabel\newlabel
\gdef\newlabel#1#2{\newlabelxx{#1}#2}
\gdef\newlabelxx#1#2#3#4#5#6{\oldnewlabel{#1}{{#2}{#3}}}
\AtEndDocument{\ifx\hyper@anchor\@undefined
\let\contentsline\oldcontentsline
\let\newlabel\oldnewlabel
\fi}
\fi}
\global\let\hyper@last\relax 
\gdef\HyperFirstAtBeginDocument#1{#1}
\providecommand\HyField@AuxAddToFields[1]{}
\providecommand\HyField@AuxAddToCoFields[2]{}
\catcode `"\active 
\catcode `<\active 
\catcode `>\active 
\@nameuse{es@quoting}
\providecommand\@newglossary[4]{}
\@newglossary{main}{glg}{gls}{glo}
\providecommand\@glsorder[1]{}
\providecommand\@istfilename[1]{}
\@istfilename{proyecto_de_grado.ist}
\@glsorder{word}
\select@language{spanish}
\@writefile{toc}{\select@language{spanish}}
\@writefile{lof}{\select@language{spanish}}
\@writefile{lot}{\select@language{spanish}}
\@writefile{toc}{\contentsline {chapter}{Tabla de contenido}{1}{chapter*.1}}
\@writefile{toc}{\contentsline {chapter}{Lista de Figura}{2}{chapter*.1}}
\@writefile{toc}{\contentsline {chapter}{\numberline {1}PROPUESTA DE TRABAJO DE GRADO}{3}{chapter.1}}
\@writefile{lof}{\addvspace {10\p@ }}
\@writefile{lot}{\addvspace {10\p@ }}
\@writefile{toc}{\contentsline {section}{\numberline {1}DESCRIPCI\IeC {\'O}N GENERAL DEL PROYECTO}{3}{section.1.1}}
\@writefile{toc}{\contentsline {subsection}{\numberline {1.1}T\IeC {\'\i }tulo del Proyecto de Grado}{3}{subsection.1.1.1}}
\@writefile{toc}{\contentsline {subsection}{\numberline {1.2}Direcci\IeC {\'o}n de Ejecuci\IeC {\'o}n}{3}{subsection.1.1.2}}
\@writefile{toc}{\contentsline {subsection}{\numberline {1.3}Lapso de Ejecuci\IeC {\'o}n}{3}{subsection.1.1.3}}
\@writefile{toc}{\contentsline {subsection}{\numberline {1.4}Organismo o Instituci\IeC {\'o}n Responsable del Proyecto}{4}{subsection.1.1.4}}
\@writefile{toc}{\contentsline {subsection}{\numberline {1.5}Informaci\IeC {\'o}n de Contacto de los Estudiantes}{4}{subsection.1.1.5}}
\@writefile{toc}{\contentsline {subsection}{\numberline {1.6}L\IeC {\'\i }nea y Subl\IeC {\'\i }nea de Investigaci\IeC {\'o}n del Proyecto}{4}{subsection.1.1.6}}
\citation{FND2003}
\@writefile{toc}{\contentsline {section}{\numberline {2}DESCRIPCI\IeC {\'O}N SITUACIONAL}{5}{section.1.2}}
\@writefile{toc}{\contentsline {subsection}{\numberline {2.1}ESTADO DEL ARTE}{5}{subsection.1.2.1}}
\citation{Fernando2014}
\citation{Carlos2009}
\citation{Grigori2014}
\citation{CarlosM2009}
\citation{PALEX2014}
\citation{AMB2014}
\citation{Luz2015}
\@writefile{toc}{\contentsline {subsection}{\numberline {2.2}PLANTEAMIENTO DEL PROBLEMA}{11}{subsection.1.2.2}}
\citation{Martha2000}
\@writefile{toc}{\contentsline {subsection}{\numberline {2.3}IMPACTO DEL PROBLEMA}{13}{subsection.1.2.3}}
\@writefile{toc}{\contentsline {subsection}{\numberline {2.4}ANALISIS DE PARTICIPACI\IeC {\'O}N}{14}{subsection.1.2.4}}
\@writefile{toc}{\contentsline {subsection}{\numberline {2.5}OBJETIVOS DEL PROYECTO}{14}{subsection.1.2.5}}
\@writefile{toc}{\contentsline {subsection}{\numberline {2.6}JUSTIFICACI\IeC {\'O}N DEL PROYECTO}{15}{subsection.1.2.6}}
\bibdata{bibliografias}
\@writefile{toc}{\contentsline {subsection}{\numberline {2.7}Cronograma}{17}{subsection.1.2.7}}
\@writefile{lof}{\contentsline {figure}{\numberline {1.1}{\ignorespaces Desarrollo del proyecto mediante un cronograma de actividades\relax }}{17}{figure.caption.3}}
\providecommand*\caption@xref[2]{\@setref\relax\@undefined{#1}}
\newlabel{fig:}{{1.1}{17}{Desarrollo del proyecto mediante un cronograma de actividades\relax }{figure.caption.3}{}}
\bibcite{FND2003}{{1}{}{{}}{{}}}
\bibcite{Fernando2014}{{2}{}{{}}{{}}}
\bibcite{Carlos2009}{{3}{}{{}}{{}}}
\bibcite{Grigori2014}{{4}{}{{}}{{}}}
\bibcite{CarlosM2009}{{5}{}{{}}{{}}}
\bibcite{PALEX2014}{{6}{}{{}}{{}}}
\bibcite{AMB2014}{{7}{}{{}}{{}}}
\bibcite{Luz2015}{{8}{}{{}}{{}}}
\bibcite{Martha2000}{{9}{}{{}}{{}}}
\bibstyle{unsrt}
\providecommand\NAT@force@numbers{}\NAT@force@numbers
\@writefile{toc}{\contentsline {chapter}{ Referencias Bibliograf\IeC {\'\i }a}{19}{chapter*.4}}
